<svg xmlns="http://www.w3.org/2000/svg" xmlns:xlink="http://www.w3.org/1999/xlink" width="44.63829803466797" height="44.2127685546875" style=""><rect id="backgroundrect" width="100%" height="100%" x="0" y="0" fill="none" stroke="none" class="" style=""/>
    <defs>
        <path id="a" d="M8.414 7l5.293 5.293a1 1 0 0 1-1.414 1.414L7 8.414l-5.293 5.293a1 1 0 1 1-1.414-1.414L5.586 7 .293 1.707A1 1 0 1 1 1.707.293L7 5.586 12.293.293a1 1 0 0 1 1.414 1.414L8.414 7z"/>
    </defs>
    
<g class="currentLayer" style=""><title>Layer 1</title><use fill="#ff3b30" fill-rule="nonzero" xlink:href="#a" id="svg_1" class="" y="15.068254283163645" x="15.275966694868572"/></g></svg>