
{
    "modules": [
        {
            "name": "Dashboard",
            "link": "/dashboard",
            "icon": "icon-dashboard",
            "allow_providers": [
                "super-admin",
                "admins"
            ],
            "allow_levels": [
                "brand",
                "outlet"
            ],
            "allow_types": [
                "fb"
            ]
        },
        {
            "name": "Organizations",
            "link": "/organizations",
            "icon": "icon-organization",
            "allow_providers": [
                "super-admin"
            ],
            "allow_levels": [
                "bss"
            ],
            "allow_types": [
                "fb",
                "booking"
            ]
        },
        {
            "name": "Brands",
            "link": "/brands",
            "icon": "icon-brand",
            "allow_providers": [
                "super-admin",
                "admins"
            ],
            "allow_levels": [
                "organization"
            ],
            "allow_types": [
                "fb",
                "booking"
            ]
        },
        {
            "name": "Outlets",
            "link": "/outlets",
            "icon": "icon-outlet",
            "allow_providers": [
                "super-admin",
                "admins"
            ],
            "allow_levels": [
                "organization",
                "brand"
            ],
            "allow_types": [
                "fb"
            ]
        },
        {
            "name": "Users",
            "link": null,
            "icon": "icon-customer",
            "allow_providers": [
                "super-admin",
                "admins"
            ],
            "allow_levels": [
                "bss",
                "organization",
                "brand",
                "outlet"
            ],
            "allow_types": [
                "fb",
                "booking"
            ],
            "children": [
                {
                    "name": "Users List",
                    "link": "/users",
                    "icon": "icon-dashboard",
                    "allow_providers": [
                        "super-admin",
                        "admins"
                    ],
                    "allow_levels": [
                        "bss",
                        "organization",
                        "brand",
                        "outlet"
                    ],
                    "allow_types": [
                        "fb",
                        "booking"
                    ]
                },
                {
                    "name": "Roles",
                    "link": "/roles",
                    "icon": "icon-dashboard",
                    "allow_providers": [
                        "super-admin",
                        "admins"
                    ],
                    "allow_levels": [
                        "organization",
                        "brand"
                    ],
                    "allow_types": [
                        "fb",
                        "booking"
                    ]
                }
            ]
        },
        {
            "name": "Products",
            "icon": "icon-product",
            "link": null,
            "allow_providers": [
                "super-admin",
                "admins"
            ],
            "allow_levels": [
                "organization",
                "brand",
                "outlet"
            ],
            "allow_types": [
                "fb"
            ],
            "children": [
                {
                    "name": "Categories",
                    "link": "/categories",
                    "icon": "icon-dashboard",
                    "allow_providers": [
                        "super-admin",
                        "admins"
                    ],
                    "allow_levels": [
                        "organization",
                        "brand",
                        "outlet"
                    ],
                    "allow_types": [
                        "fb",
                        "booking"
                    ]
                },
                {
                    "name": "Products",
                    "link": "/products",
                    "icon": "icon-dashboard",
                    "allow_providers": [
                        "super-admin",
                        "admins"
                    ],
                    "allow_levels": [
                        "organization",
                        "brand",
                        "outlet"
                    ],
                    "allow_types": [
                        "fb",
                        "booking"
                    ]
                },
                {
                    "name": "Attribute",
                    "link": "/attributes",
                    "icon": "icon-dashboard",
                    "allow_providers": [
                        "super-admin",
                        "admins"
                    ],
                    "allow_levels": [
                        "organization",
                        "brand",
                        "outlet"
                    ],
                    "allow_types": [
                        "fb",
                        "booking"
                    ]
                },
                {
                    "name": "Product add-on",
                    "link": "/product-add-ons",
                    "icon": "icon-dashboard",
                    "allow_providers": [
                        "super-admin",
                        "admins"
                    ],
                    "allow_levels": [
                        "organization",
                        "brand",
                        "outlet"
                    ],
                    "allow_types": [
                        "fb",
                        "booking"
                    ]
                },
                {
                    "name": "Product add-on type",
                    "link": "/product-add-on-type",
                    "icon": "icon-dashboard",
                    "allow_providers": [
                        "super-admin",
                        "admins"
                    ],
                    "allow_levels": [
                        "organization",
                        "brand",
                        "outlet"
                    ],
                    "allow_types": [
                        "fb",
                        "booking"
                    ],
                    "children": []
                }
            ]
        },
        {
            "name": "Promotion",
            "link": null,
            "icon": "icon-promotion",
            "allow_providers": [
                "super-admin",
                "admins"
            ],
            "allow_levels": [
                "organization",
                "brand",
                "outlet"
            ],
            "allow_types": [
                "fb"
            ],
            "children": [
                {
                    "name": "Promotion",
                    "icon": "icon-promotion",
                    "link": "/promotion",
                    "allow_providers": [
                        "super-admin",
                        "admins"
                    ],
                    "allow_levels": [
                        "organization",
                        "brand",
                        "outlet"
                    ],
                    "allow_types": [
                        "fb"
                    ]
                },
                {
                    "name": "Gift-categories",
                    "link": "/gift-categories",
                    "icon": "icon-product",
                    "allow_providers": [
                        "super-admin",
                        "admins"
                    ],
                    "allow_levels": [
                        "organization",
                        "brand",
                        "outlet"
                    ],
                    "allow_types": [
                        "fb"
                    ]
                },
                {
                    "name": "Gift",
                    "link": "/gift",
                    "icon": "icon-product",
                    "allow_providers": [
                        "super-admin",
                        "admins"
                    ],
                    "allow_levels": [
                        "organization",
                        "brand",
                        "outlet"
                    ],
                    "allow_types": [
                        "fb"
                    ]
                }
            ]
        },
        {
            "name": "Events",
            "icon": "icon-product",
            "link": "/events",
            "allow_providers": [
                "super-admin",
                "admins"
            ],
            "allow_levels": [
                "organization",
                "brand",
                "outlet"
            ],
            "allow_types": [
                "booking"
            ]
        },
        {
            "name": "Content Management",
            "link": null,
            "icon": "icon-product",
            "allow_providers": [
                "super-admin",
                "admins"
            ],
            "allow_levels": [
                "organization",
                "brand",
                "outlet"
            ],
            "allow_types": [
                "booking"
            ],
            "children": [
                {
                    "name": "Static Page",
                    "link": "/pages",
                    "icon": "icon-product",
                    "allow_providers": [
                        "super-admin",
                        "admins"
                    ],
                    "allow_levels": [
                        "organization",
                        "brand",
                        "outlet"
                    ],
                    "allow_types": [
                        "booking"
                    ]
                },
                {
                    "name": "Modules",
                    "link": "/modules",
                    "icon": "icon-product",
                    "allow_providers": [
                        "super-admin",
                        "admins"
                    ],
                    "allow_levels": [
                        "organization",
                        "brand",
                        "outlet"
                    ],
                    "allow_types": [
                        "booking"
                    ]
                },
                {
                    "name": "Mail",
                    "link": "/mail",
                    "icon": "icon-product",
                    "allow_providers": [
                        "super-admin",
                        "admins"
                    ],
                    "allow_levels": [
                        "organization",
                        "brand",
                        "outlet"
                    ],
                    "allow_types": [
                        "booking"
                    ]
                }
            ]
        },
        {
            "name": "Orders",
            "icon": "icon-orders",
            "link": "/orders",
            "allow_providers": [
                "super-admin",
                "admins"
            ],
            "allow_levels": [
                "organization",
                "brand",
                "outlet"
            ],
            "allow_types": [
                "fb",
                "booking"
            ],
            "children": [
                {
                    "name": "Board",
                    "icon": "icon-orders",
                    "link": "/orders/board",
                    "allow_providers": [
                        "super-admin",
                        "admins"
                    ],
                    "allow_levels": [
                        "organization",
                        "brand",
                        "outlet"
                    ],
                    "allow_types": [
                        "fb"
                    ]
                },
                {
                    "name": "List",
                    "icon": "icon-orders",
                    "link": "/orders/list",
                    "allow_providers": [
                        "super-admin",
                        "admins"
                    ],
                    "allow_levels": [
                        "organization",
                        "brand",
                        "outlet"
                    ],
                    "allow_types": [
                        "fb",
                        "booking"
                    ]
                }
            ]
        },
        {
            "name": "Customers",
            "link": "null",
            "icon": "icon-customer",
            "allow_providers": [
                "super-admin",
                "admins"
            ],
            "allow_levels": [
                "organization",
                "brand",
                "outlet"
            ],
            "allow_types": [
                "fb",
                "booking"
            ],
            "children": [
                {
                    "name": "Customers",
                    "link": "/customer",
                    "icon": "icon-dashboard",
                    "allow_providers": [
                        "super-admin",
                        "admins"
                    ],
                    "allow_levels": [
                        "organization",
                        "brand",
                        "outlet"
                    ],
                    "allow_types": [
                        "fb",
                        "booking"
                    ]
                },
                {
                    "name": "Customer-type",
                    "link": "/customer-type",
                    "icon": "icon-dashboard",
                    "allow_providers": [
                        "super-admin",
                        "admins"
                    ],
                    "allow_levels": [
                        "organization",
                        "brand",
                        "outlet"
                    ],
                    "allow_types": [
                        "fb",
                        "booking"
                    ]
                },
                {
                    "name": "Hobby",
                    "link": "/hobby",
                    "icon": "icon-dashboard",
                    "allow_providers": [
                        "super-admin",
                        "admins"
                    ],
                    "allow_levels": [
                        "organization",
                        "brand",
                        "outlet"
                    ],
                    "allow_types": [
                        "fb",
                        "booking"
                    ]
                }
            ]
        },
        {
            "name": "Loyalty Programs",
            "link": "null",
            "icon": "icon-loyalty",
            "allow_providers": [
                "super-admin",
                "admins"
            ],
            "allow_levels": [
                "brand"
            ],
            "allow_types": [
                "fb"
            ],
            "children": [
                {
                    "name": "Customer Level",
                    "link": "/loyalty-program/customer-levels",
                    "icon": "icon-dashboard",
                    "allow_providers": [
                        "super-admin",
                        "admins"
                    ],
                    "allow_levels": [
                        "brand"
                    ],
                    "allow_types": [
                        "fb"
                    ]
                },
                {
                    "name": "Customer Level Icons",
                    "link": "/loyalty-program/customer-level-icons",
                    "icon": "icon-dashboard",
                    "allow_providers": [
                        "super-admin",
                        "admins"
                    ],
                    "allow_levels": [
                        "brand"
                    ],
                    "allow_types": [
                        "fb"
                    ]
                },
                {
                    "name": "Rewards Setting",
                    "link": "/loyalty-program/rewards-setting",
                    "icon": "icon-dashboard",
                    "allow_providers": [
                        "super-admin",
                        "admins"
                    ],
                    "allow_levels": [
                        "brand"
                    ],
                    "allow_types": [
                        "fb"
                    ]
                },
                {
                    "name": "Redemption Setting",
                    "link": "/loyalty-program/redemption-setting",
                    "icon": "icon-dashboard",
                    "allow_providers": [
                        "super-admin",
                        "admins"
                    ],
                    "allow_levels": [
                        "brand"
                    ],
                    "allow_types": [
                        "fb"
                    ]
                }
            ]
        },
        {
            "name": "Setting",
            "link": null,
            "icon": "icon-orders",
            "allow_providers": [
                "super-admin",
                "admins"
            ],
            "allow_levels": [
                "bss",
                "organization",
                "brand",
                "outlet"
            ],
            "allow_types": [
                "fb",
                "booking"
            ],
            "children": [
                {
                    "name": "Profile",
                    "link": "/settings/profile",
                    "icon": "icon-dashboard",
                    "allow_providers": [
                        "super-admin",
                        "admins"
                    ],
                    "allow_levels": [
                        "organization",
                        "brand",
                        "outlet"
                    ],
                    "allow_types": [
                        "fb",
                        "booking"
                    ]
                },
                {
                    "name": "Shipping Area",
                    "link": "/settings/shipping-area",
                    "icon": "icon-dashboard",
                    "allow_providers": [
                        "super-admin",
                        "admins"
                    ],
                    "allow_levels": [
                        "brand"
                    ],
                    "allow_types": [
                        "fb"
                    ]
                },
                {
                    "name": "Payment Method",
                    "link": "/settings/payment-method",
                    "icon": "icon-dashboard",
                    "allow_providers": [
                        "super-admin",
                        "admins"
                    ],
                    "allow_levels": [
                        "brand"
                    ],
                    "allow_types": [
                        "fb"
                    ]
                },
                {
                    "name": "Notification",
                    "link": "/settings/notification",
                    "icon": "icon-dashboard",
                    "allow_providers": [
                        "super-admin",
                        "admins"
                    ],
                    "allow_levels": [
                        "organization",
                        "brand",
                        "outlet"
                    ],
                    "allow_types": [
                        "fb"
                    ]
                },
                {
                    "name": "Region & Language",
                    "link": "/settings/region-language",
                    "icon": "",
                    "allow_providers": [
                        "super-admin",
                        "admins"
                    ],
                    "allow_levels": [
                        "bss",
                        "organization",
                        "brand",
                        "outlet"
                    ],
                    "allow_types": [
                        "fb",
                        "booking"
                    ]
                },
                {
                    "name": "Order",
                    "link": "/settings/order",
                    "icon": "",
                    "allow_providers": [
                        "super-admin",
                        "admins"
                    ],
                    "allow_levels": [
                        "brand"
                    ],
                    "allow_types": [
                        "fb"
                    ]
                },
                {
                    "name": "Commission",
                    "link": "/settings/commissions",
                    "icon": "",
                    "allow_providers": [
                        "super-admin",
                        "admins"
                    ],
                    "allow_levels": [
                        "organization",
                        "brand"
                    ],
                    "allow_types": [
                        "fb"
                    ]
                },
                {
                    "name": "Banner",
                    "link": "/settings/banner",
                    "icon": "",
                    "allow_providers": [
                        "super-admin",
                        "admins"
                    ],
                    "allow_levels": [
                        "brand"
                    ],
                    "allow_types": [
                        "fb"
                    ]
                },
                {
                    "name": "Currency",
                    "link": "/settings/currencies",
                    "icon": "",
                    "allow_providers": [
                        "super-admin",
                        "admins"
                    ],
                    "allow_levels": [
                        "brand"
                    ],
                    "allow_types": [
                        "fb"
                    ]
                },
                {
                    "name": "Supported Currency",
                    "link": "/settings/supported-currencies",
                    "icon": "",
                    "allow_providers": [
                        "super-admin"
                    ],
                    "allow_levels": [
                        "bss"
                    ],
                    "allow_types": [
                        "fb"
                    ]
                }
            ]
        },
        {
            "name": "Promotions",
            "link": "promotions",
            "icon": "icon-promotion",
            "allow_providers": []
        },
        {
            "name": "Reports",
            "link": null,
            "icon": "icon-report",
            "allow_providers": [
                "super-admin",
                "admins"
            ],
            "allow_levels": [
                "organization",
                "brand",
                "outlet"
            ],
            "allow_types": [
                "fb"
            ],
            "children": [
                {
                    "name": "Action Log Report",
                    "link": "/reports/action-log",
                    "icon": "icon-dashboard",
                    "allow_providers": [
                        "super-admin",
                        "admins"
                    ],
                    "allow_levels": [
                        "organization",
                        "brand",
                        "outlet"
                    ],
                    "allow_types": [
                        "fb"
                    ]
                },
                {
                    "name": "Delivery Reports",
                    "link": "/reports/delivery-report",
                    "icon": "icon-dashboard",
                    "allow_providers": [
                        "super-admin",
                        "admins"
                    ],
                    "allow_levels": [
                        "organization",
                        "brand",
                        "outlet"
                    ],
                    "allow_types": [
                        "fb"
                    ]
                },
                {
                    "name": "Customer Orders Report",
                    "link": "/reports/customer-order",
                    "icon": "icon-dashboard",
                    "allow_providers": [
                        "super-admin",
                        "admins"
                    ],
                    "allow_levels": [
                        "organization",
                        "brand",
                        "outlet"
                    ],
                    "allow_types": [
                        "fb"
                    ]
                },
                {
                    "name": "Hourly Sales",
                    "link": "/reports/hourly-sales",
                    "icon": "icon-dashboard",
                    "allow_providers": [
                        "super-admin",
                        "admins"
                    ],
                    "allow_levels": [
                        "organization",
                        "brand",
                        "outlet"
                    ],
                    "allow_types": [
                        "fb"
                    ]
                },
                {
                    "name": "Platform Report",
                    "link": "/reports/platform-report",
                    "icon": "icon-dashboard",
                    "allow_providers": [
                        "super-admin",
                        "admins"
                    ],
                    "allow_levels": [
                        "organization",
                        "brand",
                        "outlet"
                    ],
                    "allow_types": [
                        "fb"
                    ]
                },
                {
                    "name": "Order History Report",
                    "link": "/reports/order-history",
                    "icon": "icon-dashboard",
                    "allow_providers": [
                        "super-admin",
                        "admins"
                    ],
                    "allow_levels": [
                        "organization",
                        "brand",
                        "outlet"
                    ],
                    "allow_types": [
                        "fb"
                    ]
                },
                {
                    "name": "Sales Report",
                    "link": "/reports/sales-report",
                    "icon": "icon-dashboard",
                    "allow_providers": [
                        "super-admin",
                        "admins"
                    ],
                    "allow_levels": [
                        "organization",
                        "brand",
                        "outlet"
                    ],
                    "allow_types": [
                        "fb"
                    ]
                },
                {
                    "name": "Discount Report",
                    "link": "/reports/discount-order",
                    "icon": "icon-dashboard",
                    "allow_providers": [
                        "super-admin",
                        "admins"
                    ],
                    "allow_levels": [
                        "organization",
                        "brand",
                        "outlet"
                    ],
                    "allow_types": [
                        "fb"
                    ]
                }
            ]
        },
        {
            "name": "Delivery App",
            "link": "/user-app/delivery-app",
            "icon": "icon-mobile",
            "allow_providers": [
                "super-admin",
                "admins"
            ],
            "allow_levels": [
                "brand",
                "outlet"
            ],
            "allow_types": [
                "fb"
            ]
        },
        {
            "name": "Voucher",
            "link": null,
            "icon": "icon-promotion",
            "allow_providers": [
                "super-admin",
                "admins"
            ],
            "allow_levels": [
                "brand"
            ],
            "allow_types": [
                "fb"
            ],
            "children": [
                {
                    "name": "Voucher Management",
                    "link": "/vouchers",
                    "allow_providers": [
                        "super-admin",
                        "admins"
                    ],
                    "allow_levels": [
                        "brand"
                    ],
                    "allow_types": [
                        "fb"
                    ]
                },
                {
                    "name": "Gift Voucher",
                    "link": "/vouchers/gift-voucher",
                    "allow_providers": [
                        "super-admin",
                        "admins"
                    ],
                    "allow_levels": [
                        "brand"
                    ],
                    "allow_types": [
                        "fb"
                    ]
                },
                {
                    "name": "Cash Voucher",
                    "link": "/vouchers/cash-voucher",
                    "allow_providers": [
                        "super-admin",
                        "admins"
                    ],
                    "allow_levels": [
                        "brand"
                    ],
                    "allow_types": [
                        "fb"
                    ]
                }
            ]
        },
        {
            "name": "Table",
            "link": null,
            "icon": "icon-customer",
            "allow_providers": [
                "super-admin",
                "admins"
            ],
            "allow_levels": [
                "organization",
                "brand"
            ],
            "allow_types": [
                "fb"
            ],
            "children": [
                {
                    "name": "Table categories",
                    "link": "/table-categories",
                    "allow_providers": [
                        "super-admin",
                        "admins"
                    ],
                    "allow_levels": [
                        "bss",
                        "organization",
                        "brand"
                    ],
                    "allow_types": [
                        "fb"
                    ]
                },
                {
                    "name": "Floors",
                    "link": "/floors",
                    "allow_providers": [
                        "super-admin",
                        "admins"
                    ],
                    "allow_levels": [
                        "bss",
                        "organization",
                        "brand"
                    ],
                    "allow_types": [
                        "fb"
                    ]
                },
                {
                    "name": "Tables",
                    "link": "/tables",
                    "allow_providers": [
                        "super-admin",
                        "admins"
                    ],
                    "allow_levels": [
                        "bss",
                        "organization",
                        "brand"
                    ],
                    "allow_types": [
                        "fb"
                    ]
                },
                {
                    "name": "Seat Map",
                    "link": "/seat-map",
                    "allow_providers": [
                        "super-admin",
                        "admins"
                    ],
                    "allow_levels": [
                        "bss",
                        "organization",
                        "brand"
                    ],
                    "allow_types": [
                        "fb"
                    ]
                }
            ]
        },
        {
            "name": "Resource",
            "link": "/resource",
            "icon": "icon-customer",
            "allow_providers": [
                "super-admin",
                "admins"
            ],
            "allow_levels": [
                "organization",
                "brand",
                "outlet"
            ],
            "allow_types": [
                "fb"
            ],
            "children": [
                {
                    "name": "Events",
                    "link": "/resource/events",
                    "icon": "icon-customer",
                    "allow_providers": [
                        "super-admin",
                        "admins"
                    ],
                    "allow_levels": [
                        "organization",
                        "brand",
                        "outlet"
                    ],
                    "allow_types": [
                        "fb",
                        "booking"
                    ]
                },
                {
                    "name": "News",
                    "link": "/resource/news",
                    "icon": "icon-customer",
                    "allow_providers": [
                        "super-admin",
                        "admins"
                    ],
                    "allow_levels": [
                        "organization",
                        "brand",
                        "outlet"
                    ],
                    "allow_types": [
                        "fb",
                        "booking"
                    ]
                }
            ]
        }

    ]
}
