{
    "modules": [
        {
            "name": "Brands",
            "link": "/brands",
            "icon": "icon-brand",
            "allow_providers": [
                "super-admin",
                "admins"
            ],
            "allow_levels": [
                "organization"
            ],
            "allow_types": [
                "fb",
                "booking"
            ]
        },
        {
            "name": "Users",
            "link": null,
            "icon": "icon-customer",
            "allow_providers": [
                "super-admin",
                "admins"
            ],
            "allow_levels": [
                "bss",
                "organization",
                "brand",
                "outlet"
            ],
            "allow_types": [
                "fb",
                "booking"
            ],
            "children": [
                {
                    "name": "Users List",
                    "link": "/users",
                    "icon": "icon-dashboard",
                    "allow_providers": [
                        "super-admin",
                        "admins"
                    ],
                    "allow_levels": [
                        "bss",
                        "organization",
                        "brand",
                        "outlet"
                    ],
                    "allow_types": [
                        "fb",
                        "booking"
                    ]
                }
            ]
        },
        {
            "name": "Events",
            "icon": "icon-product",
            "link": "/events",
            "allow_providers": [
                "super-admin",
                "admins"
            ],
            "allow_levels": [
                "organization",
                "brand",
                "outlet"
            ],
            "allow_types": [
                "booking"
            ]
        },
        {
            "name": "Content Management",
            "link": null,
            "icon": "icon-product",
            "allow_providers": [
                "super-admin",
                "admins"
            ],
            "allow_levels": [
                "organization",
                "brand",
                "outlet"
            ],
            "allow_types": [
                "booking"
            ],
            "children": [
                {
                    "name": "Static Page",
                    "link": "/pages",
                    "icon": "icon-product",
                    "allow_providers": [
                        "super-admin",
                        "admins"
                    ],
                    "allow_levels": [
                        "organization",
                        "brand",
                        "outlet"
                    ],
                    "allow_types": [
                        "booking"
                    ]
                },
                {
                    "name": "Modules",
                    "link": "/modules",
                    "icon": "icon-product",
                    "allow_providers": [
                        "super-admin",
                        "admins"
                    ],
                    "allow_levels": [
                        "organization",
                        "brand",
                        "outlet"
                    ],
                    "allow_types": [
                        "booking"
                    ]
                },
                {
                    "name": "Mail",
                    "link": "/mail",
                    "icon": "icon-product",
                    "allow_providers": [
                        "super-admin",
                        "admins"
                    ],
                    "allow_levels": [
                        "organization",
                        "brand",
                        "outlet"
                    ],
                    "allow_types": [
                        "booking"
                    ]
                }
            ]
        },
        {
            "name": "Orders",
            "icon": "icon-orders",
            "link": "/orders",
            "allow_providers": [
                "super-admin",
                "admins"
            ],
            "allow_levels": [
                "organization",
                "brand",
                "outlet"
            ],
            "allow_types": [
                "fb",
                "booking"
            ],
            "children": [
                {
                    "name": "List",
                    "icon": "icon-orders",
                    "link": "/orders/list",
                    "allow_providers": [
                        "super-admin",
                        "admins"
                    ],
                    "allow_levels": [
                        "organization",
                        "brand",
                        "outlet"
                    ],
                    "allow_types": [
                        "fb",
                        "booking"
                    ]
                }
            ]
        },
        {
            "name": "Customers",
            "link": "null",
            "icon": "icon-customer",
            "allow_providers": [
                "super-admin",
                "admins"
            ],
            "allow_levels": [
                "organization",
                "brand",
                "outlet"
            ],
            "allow_types": [
                "fb",
                "booking"
            ],
            "children": [
                {
                    "name": "Customers",
                    "link": "/customer",
                    "icon": "icon-dashboard",
                    "allow_providers": [
                        "super-admin",
                        "admins"
                    ],
                    "allow_levels": [
                        "organization",
                        "brand",
                        "outlet"
                    ],
                    "allow_types": [
                        "fb",
                        "booking"
                    ]
                }
            ]
        },
        {
            "name": "Setting",
            "link": null,
            "icon": "icon-orders",
            "allow_providers": [
                "super-admin",
                "admins"
            ],
            "allow_levels": [
                "bss",
                "organization",
                "brand",
                "outlet"
            ],
            "allow_types": [
                "fb",
                "booking"
            ],
            "children": [
                {
                    "name": "Profile",
                    "link": "/settings/profile",
                    "icon": "icon-dashboard",
                    "allow_providers": [
                        "super-admin",
                        "admins"
                    ],
                    "allow_levels": [
                        "organization",
                        "brand",
                        "outlet"
                    ],
                    "allow_types": [
                        "fb",
                        "booking"
                    ]
                },
                {
                    "name": "Region & Language",
                    "link": "/settings/region-language",
                    "icon": "",
                    "allow_providers": [
                        "super-admin",
                        "admins"
                    ],
                    "allow_levels": [
                        "bss",
                        "organization",
                        "brand",
                        "outlet"
                    ],
                    "allow_types": [
                        "fb",
                        "booking"
                    ]
                }
            ]
        }
    ],
    "schemas": {
        "product": {
            "configurable": true,
            "add-on": true
        },
        "order": {
            "order_type": true,
            "assign_driver": true,
            "promotion": true,
            "voucher": true
        }
    }
}
